---
title: "Connecting scene direction to year and writer"
author: "Julia Silge"
date: '2017-06-17'
output: html_document
---



## Reading in the data


```
## # A tibble: 1,201,303 x 4
##    scriptID  line word1    word2
##       <int> <chr> <chr>    <chr>
##  1     1498    69    he    comes
##  2     1498   103    he   gently
##  3     1498   104    he    picks
##  4     1498   109    he    faces
##  5     1498   179    he  machine
##  6     1498   184    he dictator
##  7     1498   254    he       is
##  8     1498   257    he   labels
##  9     1498   257    he    makes
## 10     1498   258    he  brushes
## # ... with 1,201,293 more rows
```
…
What are some words after "she" that have about the same likelihood to come from writers/directors/etc who are men and women?


```
## # A tibble: 363 x 6
##         word2 total       female         male     ratio     logratio
##         <chr> <int>        <dbl>        <dbl>     <dbl>        <dbl>
##  1      still   192 0.0013449170 0.0013439956 1.0006856  0.000988722
##  2        and   435 0.0035893754 0.0035954237 0.9983178 -0.002428952
##  3 approaches   278 0.0020833028 0.0020879692 0.9977651 -0.003227846
##  4     drives   169 0.0014621211 0.0014583496 1.0025862  0.003726210
##  5      tries   833 0.0096048757 0.0095734462 1.0032830  0.004728590
##  6    thought    59 0.0003691929 0.0003679507 1.0033759  0.004862147
##  7     brings   184 0.0013478471 0.0013527403 0.9963827 -0.005228069
##  8    listens   227 0.0019074967 0.0018982761 1.0048573  0.006990707
##  9        can   939 0.0135370731 0.0134702263 1.0049626  0.007141761
## 10     didn't   114 0.0008673103 0.0008717809 0.9948719 -0.007417391
## # ... with 353 more rows
```
…
