…
```
## # A tibble: 421,890 x 4
##    scriptID  line word1   word2
##       <int> <chr> <chr>   <chr>
##  1     1502   152    he    goes
##  2     1502   162    he   tries
##  3     1502   165    he   never
##  4     1502   664    he   steps
##  5     1502  1656   she   asked
##  6     1502  1657   she   asked
##  7     1502  1815    he   turns
##  8     1502  1947    he    sits
##  9     1502  2434    he watches
## 10     1502  2434   she  starts
## # ... with 421,880 more rows
```
…
