---
title: "Analyzing scene direction from whole sample of movies"
author: "Julia Silge"
date: '2017-05-27'
output: html_document
---





```
## # A tibble: 1,201,303 x 3
##     line word1    word2
##    <chr> <chr>    <chr>
##  1    69    he    comes
##  2   103    he   gently
##  3   104    he    picks
##  4   109    he    faces
##  5   179    he  machine
##  6   184    he dictator
##  7   254    he       is
##  8   257    he   labels
##  9   257    he    makes
## 10   258    he  brushes
## # ... with 1,201,293 more rows
```
…
